Portfolio 1
…
Explanation of Variables

In this data there are 9 variables:

Hospital1["Year"]

## # A tibble: 522 × 1
##     Year
##    <dbl>
##  1  2020
##  2  2020
##  3  2020
##  4  2020
##  5  2020
##  6  2020
##  7  2020
##  8  2020
##  9  2020
## 10  2020
## # ℹ 512 more rows

The variable “Year” includes data for the year the hospital visit
occurred, which includes the time frame of 2020-2022

Hospital1["Geography"]

## # A tibble: 522 × 1
##    Geography
##    <chr>    
##  1 Statewide
##  2 Statewide
##  3 Statewide
##  4 Statewide
##  5 Statewide
##  6 Statewide
##  7 Statewide
##  8 Statewide
##  9 Statewide
## 10 Statewide
## # ℹ 512 more rows

The “Geography” variable expresses where the data came from.

Hospital1["Pattype"]

## # A tibble: 522 × 1
##    Pattype  
##    <chr>    
##  1 Inpatient
##  2 Inpatient
##  3 Inpatient
##  4 Inpatient
##  5 Inpatient
##  6 Inpatient
##  7 Inpatient
##  8 Inpatient
##  9 Inpatient
## 10 Inpatient
## # ℹ 512 more rows

The variable “Pattype” describes the type of patient seen, either
Emergency Department (ED) visit or inpatient.

Hospital1["Category"]

## # A tibble: 522 × 1
##    Category   
##    <chr>      
##  1 DX Category
##  2 DX Category
##  3 DX Category
##  4 DX Category
##  5 Sex        
##  6 Sex        
##  7 Sex        
##  8 Sex        
##  9 Sex        
## 10 Sex        
## # ℹ 512 more rows

The variable category lays out the foundation for sex, age, race of
patient, who paid for the visit, and category of visit such as a special
mental health reason or another category.

Hospital1["Cat_desc"]

## # A tibble: 522 × 1
##    Cat_desc      
##    <chr>         
##  1 All Discharges
##  2 All Discharges
##  3 All Discharges
##  4 All Discharges
##  5 Female        
##  6 Female        
##  7 Female        
##  8 Female        
##  9 Male          
## 10 Male          
## # ℹ 512 more rows

The variable “Cat_desc” goes off of the previous category variable
and specifies the category of the patient e.g., race, sex, age, etc.

Hospital1["Dxgroup"]

## # A tibble: 522 × 1
##    Dxgroup                
##    <chr>                  
##  1 All Other Diagnoses    
##  2 Co-Occuring Disorders  
##  3 Mental Health Disorders
##  4 Substance Use Disorders
##  5 All Other Diagnoses    
##  6 Co-Occuring Disorders  
##  7 Mental Health Disorders
##  8 Substance Use Disorders
##  9 All Other Diagnoses    
## 10 Co-Occuring Disorders  
## # ℹ 512 more rows
…
