Portfolio 2
…
library(haven)
Hospital1 <- read_sav("Hospital1.sav")
#View(Hospital1) 

Age and Diagnosis

For this analysis I will be examining the age range of the patient
and their specific diagnosis. First I will look at the preview of my
variables:

Hospital1 %>% 
  select(Category, Cat_desc, Dxgroup)

## # A tibble: 522 × 3
##    Category    Cat_desc       Dxgroup                
##    <chr>       <chr>          <chr>                  
##  1 DX Category All Discharges All Other Diagnoses    
##  2 DX Category All Discharges Co-Occuring Disorders  
##  3 DX Category All Discharges Mental Health Disorders
##  4 DX Category All Discharges Substance Use Disorders
##  5 Sex         Female         All Other Diagnoses    
##  6 Sex         Female         Co-Occuring Disorders  
##  7 Sex         Female         Mental Health Disorders
##  8 Sex         Female         Substance Use Disorders
##  9 Sex         Male           All Other Diagnoses    
## 10 Sex         Male           Co-Occuring Disorders  
## # ℹ 512 more rows
…
