Portfolio 3
…
library(tidyverse) 
devtools::install_github("rstudio-education/dsbox") 
library(dsbox) 

My analysis is curated to observe only movies. First, I am curious
about the most viewed movies on Netflix that is sorted by hours
watched.

movies %>% arrange(desc(hours_viewed)) %>% select(title, hours_viewed)

## # A tibble: 36,121 × 2
##    title                                          hours_viewed
##    <chr>                                                 <dbl>
##  1 Back in Action                                    313000000
##  2 Leave the World Behind                            286300000
##  3 Rebel Ridge                                       283700000
##  4 Carry-On                                          274500000
##  5 Damsel                                            263700000
##  6 Society of the Snow // La sociedad de la nieve    252500000
##  7 The Union                                         238200000
##  8 Lift                                              230800000
##  9 Heart of Stone                                    228400000
## 10 The Life List                                     198900000
## # ℹ 36,111 more rows

Based on sorting movies from most watched in hours, the top 5 movies
on Netflix are: Back in Action, Leave the World Behind, Rebel Ridge, and
Carry-On.

Next I am curious to see if these top 5 movies are also available
globally.

movies %>% arrange(desc(hours_viewed)) %>% select(title, hours_viewed, available_globally)

## # A tibble: 36,121 × 3
##    title                                         hours_viewed available_globally
##    <chr>                                                <dbl> <chr>             
##  1 Back in Action                                   313000000 Yes               
##  2 Leave the World Behind                           286300000 Yes               
##  3 Rebel Ridge                                      283700000 Yes               
##  4 Carry-On                                         274500000 Yes               
##  5 Damsel                                           263700000 Yes               
##  6 Society of the Snow // La sociedad de la nie…    252500000 Yes               
##  7 The Union                                        238200000 Yes               
##  8 Lift                                             230800000 Yes               
##  9 Heart of Stone                                   228400000 Yes               
## 10 The Life List                                    198900000 Yes               
## # ℹ 36,111 more rows
…
